{
	"info": {
		"_postman_id": "b23ca481-4394-4179-9a8d-242da85ff37e",
		"name": "docler_todo_challenge",
		"schema": "https://schema.getpostman.com/json/collection/v2.1.0/collection.json"
	},
	"item": [
		{
			"name": "/tasks",
			"request": {
				"method": "GET",
				"header": [],
				"url": {
					"raw": "{{base_url}}/tasks",
					"host": [
						"{{base_url}}"
					],
					"path": [
						"tasks"
					]
				}
			},
			"response": []
		},
		{
			"name": "/task",
			"request": {
				"method": "POST",
				"header": [],
				"body": {
					"mode": "urlencoded",
					"urlencoded": [
						{
							"key": "title",
							"value": "This is a task!",
							"type": "text"
						},
						{
							"key": "description",
							"value": "And this is the description",
							"type": "text"
						}
					]
				},
				"url": {
					"raw": "{{base_url}}/task",
					"host": [
						"{{base_url}}"
					],
					"path": [
						"task"
					]
				}
			},
			"response": []
		},
		{
			"name": "/task/{id}",
			"request": {
				"method": "GET",
				"header": [],
				"url": {
					"raw": "{{base_url}}/task/5f074ec92d551",
					"host": [
						"{{base_url}}"
					],
					"path": [
						"task",
						"5f074ec92d551"
					]
				}
			},
			"response": []
		},
		{
			"name": "/task/{id}",
			"request": {
				"method": "PUT",
				"header": [],
				"body": {
					"mode": "urlencoded",
					"urlencoded": [
						{
							"key": "title",
							"value": "A new title!!!",
							"type": "text"
						},
						{
							"key": "description",
							"value": "A new description!!",
							"type": "text"
						}
					]
				},
				"url": {
					"raw": "{{base_url}}/task/5f074ec92d551",
					"host": [
						"{{base_url}}"
					],
					"path": [
						"task",
						"5f074ec92d551"
					]
				}
			},
			"response": []
		},
		{
			"name": "/task/{id}",
			"request": {
				"method": "DELETE",
				"header": [],
				"url": {
					"raw": "{{base_url}}/task/5f074c921d9cc",
					"host": [
						"{{base_url}}"
					],
					"path": [
						"task",
						"5f074c921d9cc"
					]
				}
			},
			"response": []
		},
		{
			"name": "/task/{id}/done",
			"request": {
				"method": "PUT",
				"header": [],
				"url": {
					"raw": "{{base_url}}/task/5f074c921d9cc/done",
					"host": [
						"{{base_url}}"
					],
					"path": [
						"task",
						"5f074c921d9cc",
						"done"
					]
				}
			},
			"response": []
		},
		{
			"name": "/doc",
			"request": {
				"method": "GET",
				"header": [],
				"url": {
					"raw": "{{base_url}}/doc",
					"host": [
						"{{base_url}}"
					],
					"path": [
						"doc"
					]
				}
			},
			"response": []
		},
		{
			"name": "/",
			"request": {
				"method": "GET",
				"header": [],
				"url": {
					"raw": "{{base_url}}/",
					"host": [
						"{{base_url}}"
					],
					"path": [
						""
					]
				}
			},
			"response": []
		}
	],
	"event": [
		{
			"listen": "prerequest",
			"script": {
				"id": "14ab07f3-d876-47ed-9881-69a792ec862e",
				"type": "text/javascript",
				"exec": [
					""
				]
			}
		},
		{
			"listen": "test",
			"script": {
				"id": "094b6998-8b8e-4a97-b43c-62a52d218f64",
				"type": "text/javascript",
				"exec": [
					""
				]
			}
		}
	],
	"variable": [
		{
			"id": "1a94490f-fe8a-4c3d-8232-dd32eb9a4a9f",
			"key": "base_url",
			"value": "http://localhost/docler_todo_challenge/public/index.php"
		}
	],
	"protocolProfileBehavior": {}
}